{'AAPL': [{'c': 295.17,
           'h': 295.67,
           'l': 294.28,
           'o': 294.28,
           't': 1583435400,
           'v': 2760},
          {'c': 294.5,
           'h': 295.195,
           'l': 294.5,
           'o': 295.03,
           't': 1583435700,
           'v': 2900},
          {'c': 294.27,
           'h': 294.47,
           'l': 294.135,
           'o': 294.47,
           't': 1583436000,
           'v': 1380},
          {'c': 294.21,
           'h': 294.57,
           'l': 293.85,
           'o': 294.17,
           't': 1583436300,
           'v': 1746},
          {'c': 294.62,
           'h': 294.93,
           'l': 294.29,
           'o': 294.6,
           't': 1583436600,
           'v': 1372},
          {'c': 295.48,
           'h': 295.48,
           'l': 294.74,
           'o': 294.74,
           't': 1583436900,
           'v': 2300},
          {'c': 295.175,
           'h': 295.72,
           'l': 295.13,
           'o': 295.55,
           't': 1583437200,
           'v': 2940},
          {'c': 294.36,
           'h': 294.81,
           'l': 294.36,
           'o': 294.81,
           't': 1583437500,
           'v': 8019},
          {'c': 294.24,
           'h': 295.32,
           'l': 294.22,
           'o': 295.26,
           't': 1583437800,
           'v': 951},
          {'c': 294.47,
           'h': 294.965,
           'l': 294.39,
           'o': 294.39,
           't': 1583438100,
           'v': 1821},
          {'c': 294.26,
           'h': 294.54,
           'l': 294.115,
           'o': 294.435,
           't': 1583438400,
           'v': 1302},
          {'c': 294.46,
           'h': 294.6,
           'l': 293.88,
           'o': 294.17,
           't': 1583438700,
           'v': 2525},
          {'c': 293.37,
           'h': 294.95,
           'l': 292.95,
           'o': 294.95,
           't': 1583439000,
           'v': 2906},
          {'c': 293.09,
           'h': 293.6,
           'l': 292.56,
           'o': 293.5,
           't': 1583439300,
           'v': 3324},
          {'c': 292.75,
           'h': 293.35,
           'l': 292.66,
           'o': 293.14,
           't': 1583439600,
           'v': 3818},
          {'c': 292.46,
           'h': 292.79,
           'l': 291.92,
           'o': 292.21,
           't': 1583439900,
           'v': 10459},
          {'c': 293.87,
           'h': 293.87,
           'l': 293.11,
           'o': 293.11,
           't': 1583440200,
           'v': 1306},
          {'c': 293.26,
           'h': 294.32,
           'l': 293.26,
           'o': 294.315,
           't': 1583440500,
           'v': 3981},
          {'c': 292.52,
           'h': 293.255,
           'l': 292.24,
           'o': 292.96,
           't': 1583440800,
           'v': 8152},
          {'c': 292.9,
           'h': 293.735,
           'l': 292.68,
           'o': 293.735,
           't': 1583441100,
           'v': 4945},
          {'c': 293.92,
           'h': 294.22,
           'l': 293.52,
           'o': 294.05,
           't': 1583441400,
           'v': 11492},
          {'c': 293.2,
           'h': 293.2,
           'l': 291.525,
           'o': 292.21,
           't': 1583441700,
           'v': 17086},
          {'c': 283.54,
           'h': 284.9,
           'l': 281.36,
           'o': 281.89,
           't': 1583505000,
           'v': 78827},
          {'c': 285.19,
           'h': 285.22,
           'l': 283.38,
           'o': 283.38,
           't': 1583505300,
           'v': 2554},
          {'c': 284.98,
           'h': 285.205,
           'l': 283.62,
           'o': 284.6,
           't': 1583505600,
           'v': 6441},
          {'c': 283.475,
           'h': 284.635,
           'l': 283.475,
           'o': 284.58,
           't': 1583505900,
           'v': 3980},
          {'c': 283.635,
           'h': 283.79,
           'l': 282.67,
           'o': 283.49,
           't': 1583506200,
           'v': 10742},
          {'c': 284.38,
           'h': 284.42,
           'l': 283.16,
           'o': 283.64,
           't': 1583506500,
           'v': 3398},
          {'c': 285.82,
           'h': 286.3,
           'l': 284.41,
           'o': 284.45,
           't': 1583506800,
           'v': 9159},
          {'c': 285.65,
           'h': 286.56,
           'l': 284.975,
           'o': 286.02,
           't': 1583507100,
           'v': 4262},
          {'c': 286.9,
           'h': 287.015,
           'l': 284.85,
           'o': 285.35,
           't': 1583507400,
           'v': 3985},
          {'c': 286.26,
           'h': 287.72,
           'l': 285.955,
           'o': 286.83,
           't': 1583507700,
           'v': 9942},
          {'c': 286.44,
           'h': 286.55,
           'l': 285.24,
           'o': 285.86,
           't': 1583508000,
           'v': 5706},
          {'c': 288.04,
           'h': 288.17,
           'l': 286.515,
           'o': 286.515,
           't': 1583508300,
           'v': 4547},
          {'c': 287.25,
           'h': 289.085,
           'l': 287.25,
           'o': 288.54,
           't': 1583508600,
           'v': 3084},
          {'c': 288.6,
           'h': 288.8,
           'l': 287.02,
           'o': 287.02,
           't': 1583508900,
           'v': 3419},
          {'c': 289.48,
           'h': 289.91,
           'l': 288.205,
           'o': 288.52,
           't': 1583509200,
           'v': 5326},
          {'c': 289.16,
           'h': 289.945,
           'l': 288.71,
           'o': 289.74,
           't': 1583509500,
           'v': 4182},
          {'c': 288.85,
           'h': 289.56,
           'l': 288.32,
           'o': 289.41,
           't': 1583509800,
           'v': 3969},
          {'c': 287.91,
           'h': 288.75,
           'l': 287.34,
           'o': 288.555,
           't': 1583510100,
           'v': 6292},
          {'c': 286.86,
           'h': 287.97,
           'l': 286.66,
           'o': 287.54,
           't': 1583510400,
           'v': 4139},
          {'c': 286.34,
           'h': 287.005,
           'l': 285.99,
           'o': 286.775,
           't': 1583510700,
           'v': 4345},
          {'c': 285.53,
           'h': 286.435,
           'l': 285.53,
           'o': 285.78,
           't': 1583511000,
           'v': 2177},
          {'c': 286.08,
           'h': 286.39,
           'l': 285.51,
           'o': 285.755,
           't': 1583511300,
           'v': 3878},
          {'c': 285.71,
           'h': 286.46,
           'l': 285.18,
           'o': 286.46,
           't': 1583511600,
           'v': 4326},
          {'c': 285.91,
           'h': 286.58,
           'l': 285.32,
           'o': 285.32,
           't': 1583511900,
           'v': 1612},
          {'c': 286.82,
           'h': 287.42,
           'l': 286.065,
           'o': 286.065,
           't': 1583512200,
           'v': 1622},
          {'c': 286.79,
           'h': 287,
           'l': 286.4,
           'o': 286.84,
           't': 1583512500,
           'v': 1190},
          {'c': 284.96,
           'h': 286.05,
           'l': 284.96,
           'o': 285.98,
           't': 1583512800,
           'v': 2950},
          {'c': 284.515,
           'h': 285.1,
           'l': 284.465,
           'o': 284.71,
           't': 1583513100,
           'v': 1905},
          {'c': 284.79,
           'h': 285.17,
           'l': 284.415,
           'o': 284.425,
           't': 1583513400,
           'v': 1727},
          {'c': 284.43,
           'h': 284.765,
           'l': 284.24,
           'o': 284.62,
           't': 1583513700,
           'v': 1430},
          {'c': 283.83,
           'h': 284.47,
           'l': 283.83,
           'o': 284.425,
           't': 1583514000,
           'v': 1810},
          {'c': 284.3,
           'h': 284.34,
           'l': 283.645,
           'o': 283.72,
           't': 1583514300,
           'v': 3500},
          {'c': 284.66,
           'h': 284.935,
           'l': 284.015,
           'o': 284.05,
           't': 1583514600,
           'v': 13641},
          {'c': 284.58,
           'h': 285.215,
           'l': 284.49,
           'o': 284.55,
           't': 1583514900,
           'v': 3902},
          {'c': 284.71,
           'h': 285.21,
           'l': 284.54,
           'o': 284.54,
           't': 1583515200,
           'v': 1766},
          {'c': 284.57,
           'h': 285.19,
           'l': 284.44,
           'o': 284.65,
           't': 1583515500,
           'v': 1251},
          {'c': 286.07,
           'h': 286.14,
           'l': 285.4,
           'o': 285.4,
           't': 1583515800,
           'v': 1731},
          {'c': 286.275,
           'h': 286.985,
           'l': 286.05,
           'o': 286.29,
           't': 1583516100,
           'v': 3157},
          {'c': 286.76,
           'h': 286.76,
           'l': 285.93,
           'o': 286.025,
           't': 1583516400,
           'v': 4180},
          {'c': 285.745,
           'h': 287.22,
           'l': 285.745,
           'o': 286.955,
           't': 1583516700,
           'v': 4051},
          {'c': 285.505,
           'h': 285.74,
           'l': 285.2,
           'o': 285.2,
           't': 1583517000,
           'v': 346},
          {'c': 285.315,
           'h': 285.8,
           'l': 285.315,
           'o': 285.55,
           't': 1583517300,
           'v': 1139},
          {'c': 285.76,
           'h': 286.1,
           'l': 285.24,
           'o': 285.24,
           't': 1583517600,
           'v': 1344},
          {'c': 286.06,
           'h': 286.41,
           'l': 285.985,
           'o': 286.41,
           't': 1583517900,
           'v': 802},
          {'c': 285.67,
           'h': 286.41,
           'l': 285.67,
           'o': 286.41,
           't': 1583518200,
           'v': 700},
          {'c': 286.33,
           'h': 286.55,
           'l': 285.94,
           'o': 285.94,
           't': 1583518500,
           'v': 597},
          {'c': 288,
           'h': 288,
           'l': 286.44,
           'o': 286.45,
           't': 1583518800,
           'v': 1016},
          {'c': 287.155,
           'h': 287.81,
           'l': 287.155,
           'o': 287.81,
           't': 1583519100,
           'v': 466},
          {'c': 286.28,
           'h': 287.69,
           'l': 286.28,
           'o': 287.07,
           't': 1583519400,
           'v': 5218},
          {'c': 286.525,
           'h': 286.525,
           'l': 285.64,
           'o': 286.345,
           't': 1583519700,
           'v': 5143},
          {'c': 286.09,
           'h': 286.78,
           'l': 285.95,
           'o': 286.78,
           't': 1583520000,
           'v': 712},
          {'c': 285,
           'h': 286.09,
           'l': 284.88,
           'o': 286.09,
           't': 1583520300,
           'v': 1091},
          {'c': 284.58,
           'h': 285.175,
           'l': 284.58,
           'o': 284.9,
           't': 1583520600,
           'v': 1015},
          {'c': 284.695,
           'h': 285.135,
           'l': 284.645,
           'o': 284.7,
           't': 1583520900,
           'v': 4886},
          {'c': 284.96,
           'h': 285.04,
           'l': 284.38,
           'o': 284.39,
           't': 1583521200,
           'v': 1368},
          {'c': 284.56,
           'h': 285.37,
           'l': 284.29,
           'o': 285.06,
           't': 1583521500,
           'v': 1046},
          {'c': 284.51,
           'h': 284.89,
           'l': 284.13,
           'o': 284.13,
           't': 1583521800,
           'v': 869},
          {'c': 284.48,
           'h': 284.69,
           'l': 284.03,
           'o': 284.69,
           't': 1583522100,
           'v': 2680},
          {'c': 284.975,
           'h': 284.975,
           'l': 284.37,
           'o': 284.37,
           't': 1583522400,
           'v': 959},
          {'c': 284.795,
           'h': 285.38,
           'l': 284.61,
           'o': 285.23,
           't': 1583522700,
           'v': 2261},
          {'c': 283.815,
           'h': 284.98,
           'l': 283.815,
           'o': 284.84,
           't': 1583523000,
           'v': 3326},
          {'c': 282.885,
           'h': 283.6,
           'l': 282.86,
           'o': 283.6,
           't': 1583523300,
           'v': 3892},
          {'c': 282.69,
           'h': 283.2,
           'l': 282.55,
           'o': 282.79,
           't': 1583523600,
           'v': 3070},
          {'c': 282.23,
           'h': 282.935,
           'l': 282,
           'o': 282.935,
           't': 1583523900,
           'v': 1663},
          {'c': 282.28,
           'h': 282.56,
           'l': 282.01,
           'o': 282.235,
           't': 1583524200,
           'v': 2437},
          {'c': 282.79,
           'h': 283.15,
           'l': 282.26,
           'o': 282.26,
           't': 1583524500,
           'v': 2193},
          {'c': 282,
           'h': 282.99,
           'l': 281.87,
           'o': 282.945,
           't': 1583524800,
           'v': 2465},
          {'c': 281.98,
           'h': 282.155,
           'l': 281.65,
           'o': 282,
           't': 1583525100,
           'v': 2106},
          {'c': 282.81,
           'h': 283.63,
           'l': 282.31,
           'o': 282.525,
           't': 1583525400,
           'v': 2031},
          {'c': 284.345,
           'h': 284.41,
           'l': 283.27,
           'o': 283.27,
           't': 1583525700,
           'v': 3684},
          {'c': 284.47,
           'h': 284.58,
           'l': 283.66,
           'o': 283.925,
           't': 1583526000,
           'v': 2707},
          {'c': 283.655,
           'h': 284.9,
           'l': 283.59,
           'o': 284.78,
           't': 1583526300,
           'v': 3489},
          {'c': 285.605,
           'h': 286.255,
           'l': 283.12,
           'o': 283.47,
           't': 1583526600,
           'v': 6541},
          {'c': 285.395,
           'h': 286.55,
           'l': 284.975,
           'o': 286.03,
           't': 1583526900,
           'v': 2505},
          {'c': 285.535,
           'h': 285.85,
           'l': 284.675,
           'o': 284.82,
           't': 1583527200,
           'v': 7989},
          {'c': 287.13,
           'h': 287.32,
           'l': 286.2,
           'o': 286.34,
           't': 1583527500,
           'v': 9792},
          {'c': 289.03,
           'h': 289.93,
           'l': 288.66,
           'o': 288.74,
           't': 1583527800,
           'v': 13049},
          {'c': 288.98,
           'h': 290.12,
           'l': 288.37,
           'o': 288.88,
           't': 1583528100,
           'v': 21727}]}
