date,1. open,2. high,3. low,4. close,5. adjusted close,6. volume,7. dividend amount,8. split coefficient
2020-03-06,282.0,290.82,281.23,289.03,289.03,56544246.0,0.0,1.0
2020-03-05,295.52,299.55,291.41,292.92,292.92,46893219.0,0.0,1.0
2020-03-04,296.44,303.4,293.13,302.74,302.74,54794568.0,0.0,1.0
2020-03-03,303.67,304.0,285.8,289.32,289.32,79868852.0,0.0,1.0
2020-03-02,282.28,301.44,277.72,298.81,298.81,85349339.0,0.0,1.0
2020-02-28,257.26,278.41,256.37,273.36,273.36,106721230.0,0.0,1.0
2020-02-27,281.1,286.0,272.96,273.52,273.52,80151381.0,0.0,1.0
2020-02-26,286.53,297.88,286.5,292.65,292.65,49678431.0,0.0,1.0
2020-02-25,300.95,302.53,286.13,288.08,288.08,57668364.0,0.0,1.0
2020-02-24,297.26,304.18,289.23,298.18,298.18,55548828.0,0.0,1.0
2020-02-21,318.62,320.45,310.5,313.05,313.05,32426415.0,0.0,1.0
2020-02-20,322.63,324.65,318.21,320.3,320.3,25141489.0,0.0,1.0
2020-02-19,320.0,324.57,320.0,323.62,323.62,23495991.0,0.0,1.0
2020-02-18,315.36,319.75,314.61,319.0,319.0,38190545.0,0.0,1.0
2020-02-14,324.73,325.98,322.85,324.95,324.95,20028447.0,0.0,1.0
2020-02-13,324.19,326.22,323.35,324.87,324.87,23686892.0,0.0,1.0
2020-02-12,321.47,327.22,321.47,327.2,327.2,28432573.0,0.0,1.0
2020-02-11,323.6,323.9,318.71,319.61,319.61,23580780.0,0.0,1.0
2020-02-10,314.18,321.55,313.85,321.55,321.55,27337215.0,0.0,1.0
2020-02-07,322.37,323.4,318.0,320.03,320.03,29421012.0,0.77,1.0
2020-02-06,322.57,325.22,320.2648,325.21,324.4294,26356385.0,0.0,1.0
2020-02-05,323.52,324.76,318.95,321.45,320.6784,29706718.0,0.0,1.0
2020-02-04,315.31,319.64,313.6345,318.85,318.0847,34154134.0,0.0,1.0
2020-02-03,304.3,313.49,302.22,308.66,307.9191,43496401.0,0.0,1.0
2020-01-31,320.93,322.68,308.29,309.51,308.7671,49897096.0,0.0,1.0
2020-01-30,320.5435,324.09,318.75,323.87,323.0926,31685808.0,0.0,1.0
2020-01-29,324.45,327.85,321.38,324.34,323.5615,54149928.0,0.0,1.0
2020-01-28,312.6,318.4,312.19,317.69,316.9275,40558486.0,0.0,1.0
2020-01-27,310.06,311.77,304.88,308.95,308.2084,40485005.0,0.0,1.0
2020-01-24,320.25,323.33,317.5188,318.31,317.546,36634380.0,0.0,1.0
2020-01-23,317.92,319.56,315.65,319.23,318.4638,26117993.0,0.0,1.0
2020-01-22,318.58,319.99,317.31,317.7,316.9374,25458115.0,0.0,1.0
2020-01-21,317.19,319.02,316.0,316.57,315.8102,27235039.0,0.0,1.0
2020-01-17,316.27,318.74,315.0,318.73,317.965,34454117.0,0.0,1.0
2020-01-16,313.59,315.7,312.09,315.24,314.4833,27207254.0,0.0,1.0
2020-01-15,311.85,315.5,309.55,311.34,310.5927,30480882.0,0.0,1.0
2020-01-14,316.7,317.57,312.17,312.68,311.9295,40653457.0,0.0,1.0
2020-01-13,311.64,317.07,311.15,316.96,316.1992,30028742.0,0.0,1.0
2020-01-10,310.6,312.67,308.25,310.33,309.5851,35217272.0,0.0,1.0
2020-01-09,307.235,310.43,306.2,309.63,308.8868,42621542.0,0.0,1.0
2020-01-08,297.16,304.4399,297.156,303.19,302.4623,33090946.0,0.0,1.0
2020-01-07,299.84,300.9,297.48,298.39,297.6738,27877655.0,0.0,1.0
2020-01-06,293.79,299.96,292.75,299.8,299.0804,29644644.0,0.0,1.0
2020-01-03,297.15,300.58,296.5,297.43,296.7161,36633878.0,0.0,1.0
2020-01-02,296.24,300.6,295.19,300.35,299.6291,33911864.0,0.0,1.0
2019-12-31,289.93,293.68,289.52,293.65,292.9452,25247625.0,0.0,1.0
2019-12-30,289.46,292.69,285.22,291.52,290.8203,36059614.0,0.0,1.0
2019-12-27,291.12,293.97,288.12,289.8,289.1044,36592936.0,0.0,1.0
2019-12-26,284.82,289.98,284.7,289.91,289.2141,23334004.0,0.0,1.0
2019-12-24,284.69,284.89,282.9197,284.27,283.5877,12119714.0,0.0,1.0
2019-12-23,280.53,284.25,280.3735,284.0,283.3183,24677883.0,0.0,1.0
2019-12-20,282.23,282.65,278.56,279.44,278.7693,69032743.0,0.0,1.0
2019-12-19,279.5,281.18,278.95,280.02,279.3479,24626947.0,0.0,1.0
2019-12-18,279.8,281.9,279.12,279.74,279.0686,29024687.0,0.0,1.0
2019-12-17,279.57,281.77,278.8,280.41,279.7369,28575798.0,0.0,1.0
2019-12-16,277.0,280.79,276.98,279.86,279.1883,32081105.0,0.0,1.0
2019-12-13,271.46,275.3,270.93,275.15,274.4896,33432806.0,0.0,1.0
2019-12-12,267.78,272.5599,267.321,271.46,270.8084,34437042.0,0.0,1.0
2019-12-11,268.81,271.1,268.5,270.77,270.1201,19723391.0,0.0,1.0
2019-12-10,268.6,270.07,265.86,268.48,267.8356,22632383.0,0.0,1.0
2019-12-09,270.0,270.8,264.91,266.92,266.2793,32182645.0,0.0,1.0
2019-12-06,267.48,271.0,267.3,270.71,270.0602,26547493.0,0.0,1.0
2019-12-05,263.79,265.89,262.73,265.58,264.9425,18661343.0,0.0,1.0
2019-12-04,261.07,263.31,260.68,261.74,261.1118,16810388.0,0.0,1.0
2019-12-03,258.31,259.53,256.29,259.45,258.8273,29377268.0,0.0,1.0
2019-12-02,267.27,268.25,263.45,264.16,263.526,23693550.0,0.0,1.0
2019-11-29,266.6,268.0,265.9,267.25,266.6085,11654363.0,0.0,1.0
2019-11-27,265.58,267.98,265.31,267.84,267.1971,16386122.0,0.0,1.0
2019-11-26,266.94,267.16,262.5,264.29,263.6556,26334882.0,0.0,1.0
2019-11-25,262.71,266.44,262.52,266.37,265.7306,21029517.0,0.0,1.0
2019-11-22,262.59,263.18,260.84,261.78,261.1517,16331263.0,0.0,1.0
2019-11-21,263.69,264.005,261.18,262.01,261.3811,30348778.0,0.0,1.0
2019-11-20,265.54,266.083,260.4,263.19,262.5583,26609919.0,0.0,1.0
2019-11-19,267.9,268.0,265.3926,266.29,265.6508,19069597.0,0.0,1.0
2019-11-18,265.8,267.43,264.23,267.1,266.4589,21700897.0,0.0,1.0
2019-11-15,263.68,265.78,263.01,265.76,265.1221,25093666.0,0.0,1.0
2019-11-14,263.75,264.88,262.1,262.64,262.0096,22395556.0,0.0,1.0
2019-11-13,261.13,264.78,261.07,264.47,263.8352,25817593.0,0.0,1.0
2019-11-12,261.55,262.79,260.92,261.96,261.3312,21847226.0,0.0,1.0
2019-11-11,258.3,262.47,258.28,262.2,261.5707,20507459.0,0.0,1.0
2019-11-08,258.69,260.44,256.85,260.14,259.5156,17520495.0,0.0,1.0
2019-11-07,258.74,260.35,258.11,259.43,258.8073,23735083.0,0.77,1.0
2019-11-06,256.77,257.49,255.365,257.24,255.8631,18966124.0,0.0,1.0
2019-11-05,257.05,258.19,256.32,257.13,255.7537,19974427.0,0.0,1.0
2019-11-04,257.33,257.845,255.38,257.5,256.1218,25817952.0,0.0,1.0
2019-11-01,249.54,255.93,249.16,255.82,254.4507,37781334.0,0.0,1.0
2019-10-31,247.24,249.17,237.26,248.76,247.4285,34790520.0,0.0,1.0
2019-10-30,244.76,245.3,241.21,243.26,241.958,31130522.0,0.0,1.0
2019-10-29,248.97,249.75,242.57,243.29,241.9878,35709867.0,0.0,1.0
2019-10-28,247.42,249.25,246.72,249.05,247.717,23655368.0,0.0,1.0
2019-10-25,243.16,246.73,242.88,246.58,245.2602,18369296.0,0.0,1.0
2019-10-24,244.51,244.8,241.805,243.58,242.2763,17916255.0,0.0,1.0
2019-10-23,242.1,243.24,241.22,243.18,241.8784,19932545.0,0.0,1.0
2019-10-22,241.16,242.2,239.6218,239.96,238.6756,22684001.0,0.0,1.0
2019-10-21,237.52,240.99,237.32,240.51,239.2227,21811567.0,0.0,1.0
2019-10-18,234.59,237.58,234.29,236.41,235.1446,24248023.0,0.0,1.0
2019-10-17,235.09,236.15,233.52,235.28,234.0207,17272897.0,0.0,1.0
2019-10-16,233.37,235.24,233.2,234.37,233.1156,19286694.0,0.0,1.0
2019-10-15,236.39,237.65,234.88,235.32,234.0605,23040483.0,0.0,1.0
2019-10-14,234.9,238.1342,234.6701,235.87,234.6075,24413484.0,0.0,1.0
