{'AAPL': [{'c': 299.95,
           'h': 300.87,
           'l': 298.285,
           'o': 299.66,
           't': 1583249400,
           'v': 117427},
          {'c': 299.33,
           'h': 300.15,
           'l': 297.16,
           'o': 299.79,
           't': 1583250300,
           'v': 94729},
          {'c': 293.77,
           'h': 299.875,
           'l': 293.62,
           'o': 299.13,
           't': 1583251200,
           'v': 32901},
          {'c': 292.02,
           'h': 295.755,
           'l': 291.21,
           'o': 294.275,
           't': 1583252100,
           'v': 62581},
          {'c': 294.78,
           'h': 295.52,
           'l': 291.76,
           'o': 291.76,
           't': 1583253000,
           'v': 23201},
          {'c': 295.97,
           'h': 296.64,
           'l': 293.33,
           'o': 294.865,
           't': 1583253900,
           'v': 17995},
          {'c': 295.27,
           'h': 297.43,
           'l': 295.19,
           'o': 295.75,
           't': 1583254800,
           'v': 8622},
          {'c': 293.93,
           'h': 295.57,
           'l': 293.57,
           'o': 294.88,
           't': 1583255700,
           'v': 9091},
          {'c': 294.18,
           'h': 294.855,
           'l': 293.25,
           'o': 293.9,
           't': 1583256600,
           'v': 10690},
          {'c': 294,
           'h': 295.47,
           'l': 292.97,
           'o': 294.405,
           't': 1583257500,
           'v': 5896},
          {'c': 291.35,
           'h': 293.53,
           'l': 291.35,
           'o': 293.53,
           't': 1583258400,
           'v': 5868},
          {'c': 291.35,
           'h': 292.14,
           'l': 289.56,
           'o': 291.695,
           't': 1583259300,
           'v': 12890},
          {'c': 289.115,
           'h': 291.92,
           'l': 289,
           'o': 291.22,
           't': 1583260200,
           'v': 7919},
          {'c': 288.2,
           'h': 290.06,
           'l': 288.05,
           'o': 289.25,
           't': 1583261100,
           'v': 13901},
          {'c': 287.83,
           'h': 289.02,
           'l': 285.945,
           'o': 288.14,
           't': 1583262000,
           'v': 16811},
          {'c': 287.87,
           'h': 288.04,
           'l': 285.945,
           'o': 287.91,
           't': 1583262900,
           'v': 14590},
          {'c': 287.6,
           'h': 289.295,
           'l': 287.185,
           'o': 288.1,
           't': 1583263800,
           'v': 10957},
          {'c': 289.74,
           'h': 290.61,
           'l': 287.355,
           'o': 287.58,
           't': 1583264700,
           'v': 10840},
          {'c': 292.26,
           'h': 292.78,
           'l': 289.92,
           'o': 290.4,
           't': 1583265600,
           'v': 52686},
          {'c': 292.735,
           'h': 293.385,
           'l': 290.22,
           'o': 292.29,
           't': 1583266500,
           'v': 17335},
          {'c': 291.18,
           'h': 292.67,
           'l': 288.86,
           'o': 292.66,
           't': 1583267400,
           'v': 11081},
          {'c': 289.14,
           'h': 292.43,
           'l': 287.93,
           'o': 290.89,
           't': 1583268300,
           'v': 46006},
          {'c': 295.92,
           'h': 298.36,
           'l': 294.53,
           'o': 296.41,
           't': 1583332200,
           'v': 111382},
          {'c': 294.52,
           'h': 296.365,
           'l': 293.21,
           'o': 295.885,
           't': 1583333100,
           'v': 37907},
          {'c': 296.99,
           'h': 297.12,
           'l': 294.48,
           'o': 294.84,
           't': 1583334000,
           'v': 17651},
          {'c': 297.07,
           'h': 297.96,
           'l': 296.27,
           'o': 296.995,
           't': 1583334900,
           'v': 17906},
          {'c': 296.31,
           'h': 296.98,
           'l': 295.35,
           'o': 296.98,
           't': 1583335800,
           'v': 28218},
          {'c': 295.17,
           'h': 296.45,
           'l': 294.62,
           'o': 296.08,
           't': 1583336700,
           'v': 36948},
          {'c': 295.59,
           'h': 295.955,
           'l': 294.41,
           'o': 295.475,
           't': 1583337600,
           'v': 15618},
          {'c': 297.12,
           'h': 297.18,
           'l': 295.32,
           'o': 295.935,
           't': 1583338500,
           'v': 9999},
          {'c': 295.76,
           'h': 297.34,
           'l': 295.16,
           'o': 297.295,
           't': 1583339400,
           'v': 12256},
          {'c': 295.89,
           'h': 296.09,
           'l': 294.69,
           'o': 295.91,
           't': 1583340300,
           'v': 10381},
          {'c': 295.65,
           'h': 296.14,
           'l': 295.425,
           'o': 295.6,
           't': 1583341200,
           'v': 5334},
          {'c': 296.75,
           'h': 296.77,
           'l': 295.48,
           'o': 296.04,
           't': 1583342100,
           'v': 33061},
          {'c': 296.375,
           'h': 296.83,
           'l': 295.72,
           'o': 296.735,
           't': 1583343000,
           'v': 34825},
          {'c': 298.965,
           'h': 298.975,
           'l': 296.37,
           'o': 296.37,
           't': 1583343900,
           'v': 56653},
          {'c': 299.55,
           'h': 299.69,
           'l': 298.685,
           'o': 298.97,
           't': 1583344800,
           'v': 48906},
          {'c': 299.82,
           'h': 300.72,
           'l': 299.4,
           'o': 299.54,
           't': 1583345700,
           'v': 31198},
          {'c': 299.22,
           'h': 300.115,
           'l': 298.69,
           'o': 299.78,
           't': 1583346600,
           'v': 19247},
          {'c': 298.86,
           'h': 299.96,
           'l': 298.56,
           'o': 298.96,
           't': 1583347500,
           'v': 20654},
          {'c': 298.7,
           'h': 299.23,
           'l': 298.09,
           'o': 299.23,
           't': 1583348400,
           'v': 11492},
          {'c': 299.8,
           'h': 299.96,
           'l': 298.435,
           'o': 298.7,
           't': 1583349300,
           'v': 16682},
          {'c': 299.37,
           'h': 300.07,
           'l': 299.04,
           'o': 299.93,
           't': 1583350200,
           'v': 23368},
          {'c': 299.11,
           'h': 299.26,
           'l': 298.32,
           'o': 299.2,
           't': 1583351100,
           'v': 24386},
          {'c': 299.175,
           'h': 299.47,
           'l': 298.43,
           'o': 299.02,
           't': 1583352000,
           'v': 18750},
          {'c': 300.4,
           'h': 300.44,
           'l': 299.02,
           'o': 299.36,
           't': 1583352900,
           'v': 39056},
          {'c': 299.72,
           'h': 301.11,
           'l': 299.66,
           'o': 300.815,
           't': 1583353800,
           'v': 30187},
          {'c': 302.84,
           'h': 303.02,
           'l': 298.91,
           'o': 299.79,
           't': 1583354700,
           'v': 59703},
          {'c': 296.425,
           'h': 297.39,
           'l': 294.59,
           'o': 295.515,
           't': 1583418600,
           'v': 52754},
          {'c': 294.84,
           'h': 296.915,
           'l': 294.61,
           'o': 296.42,
           't': 1583419500,
           'v': 22629},
          {'c': 297.02,
           'h': 297.15,
           'l': 294.34,
           'o': 295.19,
           't': 1583420400,
           'v': 21732},
          {'c': 297.71,
           'h': 298.7,
           'l': 296.49,
           'o': 297.005,
           't': 1583421300,
           'v': 31138},
          {'c': 297.39,
           'h': 298.6,
           'l': 296.91,
           'o': 298.05,
           't': 1583422200,
           'v': 10109},
          {'c': 297.62,
           'h': 299.24,
           'l': 297.03,
           'o': 297.28,
           't': 1583423100,
           'v': 22118},
          {'c': 299.17,
           'h': 299.39,
           'l': 296.97,
           'o': 297.58,
           't': 1583424000,
           'v': 29106},
          {'c': 298.73,
           'h': 299.535,
           'l': 298.2,
           'o': 299.05,
           't': 1583424900,
           'v': 11476},
          {'c': 298.03,
           'h': 299.33,
           'l': 297.83,
           'o': 298.945,
           't': 1583425800,
           'v': 13095},
          {'c': 297.39,
           'h': 298.43,
           'l': 297.07,
           'o': 297.96,
           't': 1583426700,
           'v': 7612},
          {'c': 296.825,
           'h': 297.74,
           'l': 296.4,
           'o': 297.45,
           't': 1583427600,
           'v': 10816},
          {'c': 297,
           'h': 297.165,
           'l': 296.44,
           'o': 296.53,
           't': 1583428500,
           'v': 7436},
          {'c': 294.12,
           'h': 297.325,
           'l': 294.12,
           'o': 296.875,
           't': 1583429400,
           'v': 14623},
          {'c': 294.43,
           'h': 295.02,
           'l': 293.34,
           'o': 294,
           't': 1583430300,
           'v': 23353},
          {'c': 294.13,
           'h': 294.69,
           'l': 293.68,
           'o': 294.155,
           't': 1583431200,
           'v': 8357},
          {'c': 295.57,
           'h': 295.575,
           'l': 293.475,
           'o': 294.17,
           't': 1583432100,
           'v': 19350},
          {'c': 295.275,
           'h': 296.78,
           'l': 295.125,
           'o': 295.795,
           't': 1583433000,
           'v': 9206},
          {'c': 295.865,
           'h': 296.45,
           'l': 295.15,
           'o': 295.3,
           't': 1583433900,
           'v': 13259},
          {'c': 295.17,
           'h': 295.67,
           'l': 294.24,
           'o': 295.51,
           't': 1583434800,
           'v': 11097},
          {'c': 294.21,
           'h': 295.195,
           'l': 293.85,
           'o': 295.03,
           't': 1583435700,
           'v': 6026},
          {'c': 295.175,
           'h': 295.72,
           'l': 294.29,
           'o': 294.6,
           't': 1583436600,
           'v': 6612},
          {'c': 294.47,
           'h': 295.32,
           'l': 294.22,
           'o': 294.81,
           't': 1583437500,
           'v': 10791},
          {'c': 293.37,
           'h': 294.95,
           'l': 292.95,
           'o': 294.435,
           't': 1583438400,
           'v': 6733},
          {'c': 292.46,
           'h': 293.6,
           'l': 291.92,
           'o': 293.5,
           't': 1583439300,
           'v': 17601},
          {'c': 292.52,
           'h': 294.32,
           'l': 292.24,
           'o': 293.11,
           't': 1583440200,
           'v': 13439},
          {'c': 293.2,
           'h': 294.22,
           'l': 291.525,
           'o': 293.735,
           't': 1583441100,
           'v': 33523},
          {'c': 284.98,
           'h': 285.22,
           'l': 281.36,
           'o': 281.89,
           't': 1583505000,
           'v': 87822},
          {'c': 284.38,
           'h': 284.635,
           'l': 282.67,
           'o': 284.58,
           't': 1583505900,
           'v': 18120},
          {'c': 286.9,
           'h': 287.015,
           'l': 284.41,
           'o': 284.45,
           't': 1583506800,
           'v': 17406},
          {'c': 288.04,
           'h': 288.17,
           'l': 285.24,
           'o': 286.83,
           't': 1583507700,
           'v': 20195},
          {'c': 289.48,
           'h': 289.91,
           'l': 287.02,
           'o': 288.54,
           't': 1583508600,
           'v': 11829},
          {'c': 287.91,
           'h': 289.945,
           'l': 287.34,
           'o': 289.74,
           't': 1583509500,
           'v': 14443},
          {'c': 285.53,
           'h': 287.97,
           'l': 285.53,
           'o': 287.54,
           't': 1583510400,
           'v': 10661},
          {'c': 285.91,
           'h': 286.58,
           'l': 285.18,
           'o': 285.755,
           't': 1583511300,
           'v': 9816},
          {'c': 284.96,
           'h': 287.42,
           'l': 284.96,
           'o': 286.065,
           't': 1583512200,
           'v': 5762},
          {'c': 284.43,
           'h': 285.17,
           'l': 284.24,
           'o': 284.71,
           't': 1583513100,
           'v': 5062},
          {'c': 284.66,
           'h': 284.935,
           'l': 283.645,
           'o': 284.425,
           't': 1583514000,
           'v': 18951},
          {'c': 284.57,
           'h': 285.215,
           'l': 284.44,
           'o': 284.55,
           't': 1583514900,
           'v': 6919},
          {'c': 286.76,
           'h': 286.985,
           'l': 285.4,
           'o': 285.4,
           't': 1583515800,
           'v': 9068},
          {'c': 285.315,
           'h': 287.22,
           'l': 285.2,
           'o': 286.955,
           't': 1583516700,
           'v': 5536},
          {'c': 285.67,
           'h': 286.41,
           'l': 285.24,
           'o': 285.24,
           't': 1583517600,
           'v': 2846},
          {'c': 287.155,
           'h': 288,
           'l': 285.94,
           'o': 285.94,
           't': 1583518500,
           'v': 2079},
          {'c': 286.09,
           'h': 287.69,
           'l': 285.64,
           'o': 287.07,
           't': 1583519400,
           'v': 11073},
          {'c': 284.695,
           'h': 286.09,
           'l': 284.58,
           'o': 286.09,
           't': 1583520300,
           'v': 6992},
          {'c': 284.51,
           'h': 285.37,
           'l': 284.13,
           'o': 284.39,
           't': 1583521200,
           'v': 3283},
          {'c': 284.795,
           'h': 285.38,
           'l': 284.03,
           'o': 284.69,
           't': 1583522100,
           'v': 5900},
          {'c': 282.69,
           'h': 284.98,
           'l': 282.55,
           'o': 284.84,
           't': 1583523000,
           'v': 10288},
          {'c': 282.79,
           'h': 283.15,
           'l': 282,
           'o': 282.935,
           't': 1583523900,
           'v': 6293},
          {'c': 282.81,
           'h': 283.63,
           'l': 281.65,
           'o': 282.945,
           't': 1583524800,
           'v': 6602},
          {'c': 283.655,
           'h': 284.9,
           'l': 283.27,
           'o': 283.27,
           't': 1583525700,
           'v': 9880},
          {'c': 285.535,
           'h': 286.55,
           'l': 283.12,
           'o': 283.47,
           't': 1583526600,
           'v': 17035},
          {'c': 288.98,
           'h': 290.12,
           'l': 286.2,
           'o': 286.34,
           't': 1583527500,
           'v': 44568}]}
